{
  "dir": {
    "dest": "../www/public/",
    "node": "./node_modules/",
    "src": "./src/",
    "templates": {
      "src": "./src/app/**/*.html",
      "dest": "../www/public/templates/"
    },
    "vendor": "../www/public/vendor/"
  },
  "sass": {
    "includePaths": [],
    "outputStyle": "compressed"
  },
  "concat": {
    "newline": ";"
  },
  "ngAnnotate": {
    "add": true,
    "single_quotes": true
  },
  "uglify": {
    "mangle": true,
    "preserveComments": "license"
  }
}